[gd_scene load_steps=3 format=3 uid="uid://bdybyuvqkls7e"]

[ext_resource type="PackedScene" uid="uid://k5qh8t5rqb16" path="res://Models/tree.glb" id="1_lvyoh"]

[sub_resource type="CylinderShape3D" id="CylinderShape3D_6fpf2"]
radius = 0.3

[node name="Tree" type="Node3D"]

[node name="tree" parent="." instance=ExtResource("1_lvyoh")]
transform = Transform3D(2, 0, 0, 0, 2, 0, 0, 0, 2, 0, 0, 0)

[node name="StaticBody3D" type="StaticBody3D" parent="."]
transform = Transform3D(2, 0, 0, 0, 2, 0, 0, 0, 2, 0, 0, 0)

[node name="CollisionShape3D" type="CollisionShape3D" parent="StaticBody3D"]
transform = Transform3D(1, 0, 0, 0, 1, 0, 0, 0, 1, 0, 1, 0)
shape = SubResource("CylinderShape3D_6fpf2")
